    7
 CCSD(T)/AUG-CC-PV(5+D)Z,H=V5Z  ENERGY=-153.64972611
 C         -0.0010708400        0.4630913138        0.0000000000
 O          1.2046742628        0.3744882208        0.0000000000
 H         -0.4838714049        1.4587673809        0.0000000000
 C         -0.9357340514       -0.7121791527        0.0000000000
 H         -0.3761993441       -1.6443489488        0.0000000000
 H         -1.5829578112       -0.6601449070        0.8782318198
 H         -1.5829578112       -0.6601449070       -0.8782318198

